<?xml version="1.0" encoding="utf-8"?>
<!-- Generator: Adobe Illustrator 23.0.5, SVG Export Plug-In . SVG Version: 6.00 Build 0)  -->
<svg version="1.1" id="Calque_1" xmlns="http://www.w3.org/2000/svg" xmlns:xlink="http://www.w3.org/1999/xlink" x="0px" y="0px"
	 viewBox="0 0 141.73 141.73" style="enable-background:new 0 0 141.73 141.73;" xml:space="preserve">
<style type="text/css">
	.st0{clip-path:url(#SVGID_2_);fill:#005d95;}
	.st1{fill:#FFFFFF;}
</style>
<g>
	<defs>
		<rect id="SVGID_1_" width="141.73" height="141.73"/>
	</defs>
	<clipPath id="SVGID_2_">
		<use xlink:href="#SVGID_1_"  style="overflow:visible;"/>
	</clipPath>
	<path class="st0" d="M84.54,59.96h18.7v26.8h-18.7V59.96z M108.94,54.16h-30.2v38.3h4.1v29.7h5.8v-29.7h10.6v29.7h5.8v-29.7h4.1
		L108.94,54.16z M93.84,35.46c-1.4,0-2.7,0.6-3.7,1.5c-1,1-1.5,2.3-1.5,3.7s0.6,2.7,1.5,3.7c1,1,2.3,1.5,3.7,1.5
		c1.4,0,2.7-0.6,3.7-1.5c1-1,1.5-2.3,1.5-3.7s-0.6-2.7-1.5-3.7C96.54,35.96,95.24,35.46,93.84,35.46 M93.84,51.76
		c-2.9,0-5.7-1.2-7.8-3.2c-2.1-2.1-3.2-4.9-3.2-7.8c0-2.9,1.2-5.7,3.2-7.8c2.1-2.1,4.9-3.2,7.8-3.2c2.9,0,5.7,1.2,7.8,3.2
		c2.1,2.1,3.2,4.9,3.2,7.8c0,2.9-1.2,5.7-3.2,7.8C99.54,50.56,96.74,51.76,93.84,51.76 M44.8,59.86h11.6l6.9,35H37.8L44.8,59.86z
		 M70.4,100.66L61,54.16H40.1l-9.4,46.5h8.8v21.6h5.8v-21.6h10.5v21.6h5.8v-21.6H70.4z M50.6,35.46c-1.4,0-2.7,0.5-3.7,1.5
		s-1.6,2.3-1.6,3.7s0.5,2.7,1.5,3.7s2.3,1.6,3.7,1.6c1.4,0,2.7-0.5,3.7-1.5s1.6-2.3,1.6-3.7c0-1.4-0.5-2.7-1.5-3.7
		S52,35.46,50.6,35.46 M50.6,51.76c-2.9,0-5.7-1.2-7.8-3.2c-2.1-2.1-3.2-4.9-3.2-7.8c0-2.9,1.2-5.7,3.2-7.8c2.1-2.1,4.9-3.2,7.8-3.2
		c2.9,0,5.7,1.2,7.8,3.2c2.1,2.1,3.2,4.9,3.2,7.8c0,2.9-1.2,5.7-3.2,7.8S53.5,51.76,50.6,51.76"/>
</g>
<rect x="22.68" y="77.82" class="st1" width="100.63" height="47.72"/>
</svg>
